<?xml version="1.0" encoding="utf-8"?>
<!-- Generator: Adobe Illustrator 25.2.0, SVG Export Plug-In . SVG Version: 6.00 Build 0)  -->
<svg version="1.1" id="Layer_1" xmlns="http://www.w3.org/2000/svg" xmlns:xlink="http://www.w3.org/1999/xlink" x="0px" y="0px"
	 viewBox="0 0 16 16" style="enable-background:new 0 0 16 16;" xml:space="preserve">
<style type="text/css">
	.st0{fill:#CEC6C8;}
	.st1{fill:none;}
</style>
<g>
	<path class="st0" d="M13.7,12.3l-2.5-2.5c1.3-1.9,1.1-4.6-0.6-6.3c-1.9-1.9-5.1-1.9-7.1,0c-1.9,1.9-1.9,5.1,0,7.1
		c1,1,2.3,1.5,3.5,1.5c1,0,1.9-0.3,2.8-0.8l2.5,2.5c0.2,0.2,0.5,0.3,0.7,0.3s0.5-0.1,0.7-0.3C14.1,13.3,14.1,12.7,13.7,12.3z
		 M4.9,9.1C3.7,8,3.7,6.1,4.9,4.9C5.5,4.3,6.2,4,7,4s1.5,0.3,2.1,0.9c1.2,1.2,1.2,3.1,0,4.2C8,10.3,6.1,10.3,4.9,9.1z"/>
	<rect class="st1" width="16" height="16"/>
</g>
</svg>
